\relax 
\providecommand\hyper@newdestlabel[2]{}
\providecommand\HyperFirstAtBeginDocument{\AtBeginDocument}
\HyperFirstAtBeginDocument{\ifx\hyper@anchor\@undefined
\global\let\oldcontentsline\contentsline
\gdef\contentsline#1#2#3#4{\oldcontentsline{#1}{#2}{#3}}
\global\let\oldnewlabel\newlabel
\gdef\newlabel#1#2{\newlabelxx{#1}#2}
\gdef\newlabelxx#1#2#3#4#5#6{\oldnewlabel{#1}{{#2}{#3}}}
\AtEndDocument{\ifx\hyper@anchor\@undefined
\let\contentsline\oldcontentsline
\let\newlabel\oldnewlabel
\fi}
\fi}
\global\let\hyper@last\relax 
\gdef\HyperFirstAtBeginDocument#1{#1}
\providecommand\HyField@AuxAddToFields[1]{}
\providecommand\HyField@AuxAddToCoFields[2]{}
\@writefile{toc}{\boolfalse {citerequest}\boolfalse {citetracker}\boolfalse {pagetracker}\boolfalse {backtracker}\relax }
\@writefile{lof}{\boolfalse {citerequest}\boolfalse {citetracker}\boolfalse {pagetracker}\boolfalse {backtracker}\relax }
\@writefile{lot}{\boolfalse {citerequest}\boolfalse {citetracker}\boolfalse {pagetracker}\boolfalse {backtracker}\relax }
\abx@aux@refcontext{nty/global//global/global}
\providecommand\babel@aux[2]{}
\@nameuse{bbl@beforestart}
\catcode `"\active 
\providecommand \oddpage@label [2]{}
\babel@aux{ngerman}{}
\pgfsyspdfmark {pgfid1}{3019739}{50865199}
\abx@aux@cite{demtröder2016experimentalphysik}
\abx@aux@segm{0}{0}{demtröder2016experimentalphysik}
\abx@aux@cite{AtomicAN}
\abx@aux@segm{0}{0}{AtomicAN}
\abx@aux@cite{AtomicAN}
\abx@aux@segm{0}{0}{AtomicAN}
\@writefile{toc}{\defcounter {refsection}{0}\relax }\@writefile{toc}{\contentsline {section}{\numberline {1}Theorie}{1}{section.1}\protected@file@percent }
\newlabel{eq:zeeman}{{1}{1}{Theorie}{equation.1.1}{}}
\@writefile{lof}{\defcounter {refsection}{0}\relax }\@writefile{lof}{\contentsline {figure}{\numberline {1}{\ignorespaces Polarisationsrichtungen der Dipollinien \cite {AtomicAN}\relax }}{1}{figure.1}\protected@file@percent }
\newlabel{fig:zeeman}{{1}{1}{Polarisationsrichtungen der Dipollinien \cite {AtomicAN}\relax }{figure.1}{}}
\@writefile{lof}{\defcounter {refsection}{0}\relax }\@writefile{lof}{\contentsline {figure}{\numberline {2}{\ignorespaces Experimenteller Aufbau des ersten Versuchsteils. a) Spule mit Eisenkern für homogenes Magnetfeld, b) Cd-Lampe, c) Rotlichtfilter, d)Lummer-Gehrcke Platte, e) Teleskop\relax }}{1}{figure.2}\protected@file@percent }
\@writefile{toc}{\defcounter {refsection}{0}\relax }\@writefile{toc}{\contentsline {section}{\numberline {2}Zeemannspektroskopie}{1}{section.2}\protected@file@percent }
\@writefile{lof}{\defcounter {refsection}{0}\relax }\@writefile{lof}{\contentsline {figure}{\numberline {3}{\ignorespaces Magnetfeldstärke für aufsteigende und absteigende Stromstärke\relax }}{2}{figure.3}\protected@file@percent }
\newlabel{fig:1}{{3}{2}{Magnetfeldstärke für aufsteigende und absteigende Stromstärke\relax }{figure.3}{}}
\newlabel{fig:lg_ohne}{{4a}{2}{Subfigure 4a}{subfigure.4.1}{}}
\newlabel{sub@fig:lg_ohne}{{(a)}{a}{Subfigure 4a\relax }{subfigure.4.1}{}}
\newlabel{fig2}{{4b}{2}{Subfigure 4b}{subfigure.4.2}{}}
\newlabel{sub@fig2}{{(b)}{b}{Subfigure 4b\relax }{subfigure.4.2}{}}
\@writefile{lof}{\defcounter {refsection}{0}\relax }\@writefile{lof}{\contentsline {figure}{\numberline {4}{\ignorespaces Zeeman-Effekt entlang des Magnetfelds\relax }}{2}{figure.4}\protected@file@percent }
\newlabel{fig:tr_ohne}{{5a}{2}{Subfigure 5a}{subfigure.5.1}{}}
\newlabel{sub@fig:tr_ohne}{{(a)}{a}{Subfigure 5a\relax }{subfigure.5.1}{}}
\newlabel{fig3}{{5b}{2}{Subfigure 5b}{subfigure.5.2}{}}
\newlabel{sub@fig3}{{(b)}{b}{Subfigure 5b\relax }{subfigure.5.2}{}}
\@writefile{lof}{\defcounter {refsection}{0}\relax }\@writefile{lof}{\contentsline {figure}{\numberline {5}{\ignorespaces Zeeman-Effekt orthogonal zum Magnetfeld\relax }}{2}{figure.5}\protected@file@percent }
\@writefile{lof}{\defcounter {refsection}{0}\relax }\@writefile{lof}{\contentsline {figure}{\numberline {6}{\ignorespaces normiertes Intensitätsprofil als Funktion der Pixelposition. Extrapoliert durch Voigt-Funktionen. \relax }}{2}{figure.6}\protected@file@percent }
\newlabel{fig4}{{6}{2}{normiertes Intensitätsprofil als Funktion der Pixelposition. Extrapoliert durch Voigt-Funktionen. \relax }{figure.6}{}}
\@writefile{lof}{\defcounter {refsection}{0}\relax }\@writefile{lof}{\contentsline {figure}{\numberline {7}{\ignorespaces Brechungsordnung in Abhängigkeit der $\pi $-Linienposition extrapoliert mit einem Polynom 2ten Grades\relax }}{2}{figure.7}\protected@file@percent }
\newlabel{fig5}{{7}{2}{Brechungsordnung in Abhängigkeit der $\pi $-Linienposition extrapoliert mit einem Polynom 2ten Grades\relax }{figure.7}{}}
\@writefile{lot}{\defcounter {refsection}{0}\relax }\@writefile{lot}{\contentsline {table}{\numberline {1}{\ignorespaces Zusammenfassung der bestimmten Magnetons sowie deren Abweichung zum Literaturwert\relax }}{3}{table.1}\protected@file@percent }
\newlabel{tab:1}{{1}{3}{Zusammenfassung der bestimmten Magnetons sowie deren Abweichung zum Literaturwert\relax }{table.1}{}}
\@writefile{lof}{\defcounter {refsection}{0}\relax }\@writefile{lof}{\contentsline {figure}{\numberline {8}{\ignorespaces $\Delta E$ als Funktion von $B$. Darunter die Abweichung zur Ausgleichsgerade.\relax }}{3}{figure.8}\protected@file@percent }
\newlabel{fig:ausgleich}{{8}{3}{$\Delta E$ als Funktion von $B$. Darunter die Abweichung zur Ausgleichsgerade.\relax }{figure.8}{}}
\@writefile{toc}{\defcounter {refsection}{0}\relax }\@writefile{toc}{\contentsline {section}{\numberline {3}Präzisions-Spektroskopie}{3}{section.3}\protected@file@percent }
\@writefile{lof}{\defcounter {refsection}{0}\relax }\@writefile{lof}{\contentsline {figure}{\numberline {9}{\ignorespaces Die Wellenlänge als Funktion der Extremalage, genähert durch eine Gaußfunktion. Rechts der Peak der zu bestimmenden Cd-Linie. Die Magentalinie ist die zu bestimmende Cd-Linie verstärkt.\relax }}{3}{figure.9}\protected@file@percent }
\newlabel{fig1}{{9}{3}{Die Wellenlänge als Funktion der Extremalage, genähert durch eine Gaußfunktion. Rechts der Peak der zu bestimmenden Cd-Linie. Die Magentalinie ist die zu bestimmende Cd-Linie verstärkt.\relax }{figure.9}{}}
\@writefile{lof}{\defcounter {refsection}{0}\relax }\@writefile{lof}{\contentsline {figure}{\numberline {10}{\ignorespaces Neonspektrum zusammengesetzt\relax }}{4}{figure.10}\protected@file@percent }
\newlabel{fig:neon}{{10}{4}{Neonspektrum zusammengesetzt\relax }{figure.10}{}}
\@writefile{toc}{\defcounter {refsection}{0}\relax }\@writefile{toc}{\contentsline {section}{\numberline {4}Diskussion}{4}{section.4}\protected@file@percent }
\abx@aux@read@bbl@mdfivesum{7993D0EB4FFEBE23BF7E822429361671}
\abx@aux@refcontextdefaultsdone
\abx@aux@defaultrefcontext{0}{AtomicAN}{nty/global//global/global}
\abx@aux@defaultrefcontext{0}{demtröder2016experimentalphysik}{nty/global//global/global}
\gdef \@abspage@last{5}
