[0] Config.pm:306> INFO - This is Biber 2.18
[1] Config.pm:309> INFO - Logfile is 'fp13.blg'
[217] biber-MSWIN64:340> INFO - === 
[713] Utils.pm:410> ERROR - Cannot find 'fp13.bcf'!
[714] Biber.pm:135> INFO - ERRORS: 1
