\relax 
\providecommand\babel@aux[2]{}
\@nameuse{bbl@beforestart}
\catcode `"\active 
\babel@aux{ngerman}{}
\@writefile{toc}{\contentsline {section}{\numberline {1}NaI(TI) Szintillator (Inorganisch)}{1}{}\protected@file@percent }
\@writefile{toc}{\contentsline {subsection}{\numberline {1.1}Signal des Szintillator}{1}{}\protected@file@percent }
\@writefile{lof}{\contentsline {figure}{\numberline {1}{\ignorespaces Oszilloskopbild ohne Quelle\relax }}{1}{}\protected@file@percent }
\@writefile{lof}{\contentsline {figure}{\numberline {2}{\ignorespaces Oszilloskopbild mit $^{137}{Cs}$\relax }}{1}{}\protected@file@percent }
\@writefile{toc}{\contentsline {subsection}{\numberline {1.2}Aufnahme eines Pulsspektrums}{1}{}\protected@file@percent }
\@writefile{lof}{\contentsline {figure}{\numberline {3}{\ignorespaces rechts: Aufbau für das Energiespektrum, links für den organischen Szintillator\relax }}{2}{}\protected@file@percent }
\@writefile{lof}{\contentsline {figure}{\numberline {4}{\ignorespaces Energiespektrum der $^{137}Cs$ Quelle\relax }}{2}{}\protected@file@percent }
\@writefile{toc}{\contentsline {subsection}{\numberline {1.3}Pulsrate als Funktion der Spannung}{3}{}\protected@file@percent }
\@writefile{lof}{\contentsline {figure}{\numberline {5}{\ignorespaces Spektren unter verschiedenen Spannungseinstellungen mit Gaußfit beim Photopeak\relax }}{3}{}\protected@file@percent }
\@writefile{lot}{\contentsline {table}{\numberline {1}{\ignorespaces Photopeak in Abhängigkeit der angeleten Spannung, $\Delta U = 10^{-4}$V\relax }}{3}{}\protected@file@percent }
\@writefile{lof}{\contentsline {figure}{\numberline {6}{\ignorespaces Photopeak als Position der Spannung extrapoliert mit linearer Gerade und exp. Funktion\relax }}{4}{}\protected@file@percent }
\@writefile{toc}{\contentsline {subsubsection}{\numberline {1.3.1}Spannungswahl treffen}{4}{}\protected@file@percent }
\@writefile{lot}{\contentsline {table}{\numberline {2}{\ignorespaces Messungen zur Spannungswahl, $\Delta U = 10^{-4}$V\relax }}{4}{}\protected@file@percent }
\@writefile{lof}{\contentsline {figure}{\numberline {7}{\ignorespaces Aufnahmen der $^{60}Co$ und $^{137}Cs$ Spektren\relax }}{5}{}\protected@file@percent }
\@writefile{toc}{\contentsline {subsubsection}{\numberline {1.3.2}Energie Kalibrierung}{5}{}\protected@file@percent }
\@writefile{lot}{\contentsline {table}{\numberline {3}{\ignorespaces Werte für das Erschließen einer Ausgleichsgerade\relax }}{5}{}\protected@file@percent }
\@writefile{lof}{\contentsline {figure}{\numberline {8}{\ignorespaces Ausgleichsgerade aus den Spektrenpeaks\relax }}{6}{}\protected@file@percent }
\providecommand*\caption@xref[2]{\@setref\relax\@undefined{#1}}
\newlabel{fg:1}{{8}{6}}
\@writefile{toc}{\contentsline {subsubsection}{\numberline {1.3.3}Endpunktenergie determinieren}{6}{}\protected@file@percent }
\@writefile{lof}{\contentsline {figure}{\numberline {9}{\ignorespaces Extrapolation der Maximalenergie\relax }}{6}{}\protected@file@percent }
\@writefile{lof}{\contentsline {figure}{\numberline {10}{\ignorespaces 0.5mm zusätzlich\relax }}{7}{}\protected@file@percent }
\@writefile{lof}{\contentsline {figure}{\numberline {11}{\ignorespaces 0.5mm zusätzlich\relax }}{7}{}\protected@file@percent }
\@writefile{lof}{\contentsline {figure}{\numberline {12}{\ignorespaces 1mm zusätzlich\relax }}{7}{}\protected@file@percent }
\@writefile{lof}{\contentsline {figure}{\numberline {13}{\ignorespaces 1.5mm zusätzlich\relax }}{7}{}\protected@file@percent }
\@writefile{lof}{\contentsline {figure}{\numberline {14}{\ignorespaces 2mm zusätzlich\relax }}{7}{}\protected@file@percent }
\@writefile{toc}{\contentsline {section}{\numberline {2}Aufnahme von kosmischen Myonen}{8}{}\protected@file@percent }
\@writefile{toc}{\contentsline {subsubsection}{\numberline {2.0.1}Vergleich der Spektren}{8}{}\protected@file@percent }
\@writefile{lof}{\contentsline {figure}{\numberline {15}{\ignorespaces Mit organischem Szintillator aufgenommenes $^{137}Cs$ Spektrum\relax }}{8}{}\protected@file@percent }
\@writefile{toc}{\contentsline {subsection}{\numberline {2.1}Coincidence Aufnahmen}{8}{}\protected@file@percent }
\@writefile{lof}{\contentsline {figure}{\numberline {16}{\ignorespaces oben aufeinander, unten nebeneinander\relax }}{9}{}\protected@file@percent }
\@writefile{toc}{\contentsline {subsubsection}{\numberline {2.1.1}Justieren des Schwellenwertes}{9}{}\protected@file@percent }
\@writefile{toc}{\contentsline {subsubsection}{\numberline {2.1.2}Justieren der Spannung}{9}{}\protected@file@percent }
\@writefile{lot}{\contentsline {table}{\numberline {4}{\ignorespaces Signal zum Zählratenverhältnis für unterschiedliche Spannungen, $\Delta U = 10^{-4}$\relax }}{10}{}\protected@file@percent }
\@writefile{toc}{\contentsline {subsubsection}{\numberline {2.1.3}Unbeabsichtigte Inzidenzen}{10}{}\protected@file@percent }
\@writefile{toc}{\contentsline {subsubsection}{\numberline {2.1.4}Zeitkalibrierung}{10}{}\protected@file@percent }
\@writefile{lot}{\contentsline {table}{\numberline {5}{\ignorespaces Peakmaximum als Funktion des Delays\relax }}{11}{}\protected@file@percent }
\@writefile{lof}{\contentsline {figure}{\numberline {17}{\ignorespaces Zeitkalibrierung durch Ausgleichsgerade\relax }}{11}{}\protected@file@percent }
\@writefile{toc}{\contentsline {subsubsection}{\numberline {2.1.5}Ausrichting der Szintillatoren}{11}{}\protected@file@percent }
\@writefile{lof}{\contentsline {figure}{\numberline {18}{\ignorespaces Auswirkung der Ausrichtung\relax }}{12}{}\protected@file@percent }
\@writefile{toc}{\contentsline {subsubsection}{\numberline {2.1.6}Kosmische Myonen}{13}{}\protected@file@percent }
\@writefile{lof}{\contentsline {figure}{\numberline {19}{\ignorespaces Zählrate für einen Winkel von 0 Grad\relax }}{13}{}\protected@file@percent }
\@writefile{toc}{\contentsline {section}{\numberline {3}Diskussion}{14}{}\protected@file@percent }
\@writefile{toc}{\contentsline {subsection}{\numberline {3.1}Anorganischer Szintillator}{14}{}\protected@file@percent }
\@writefile{toc}{\contentsline {subsection}{\numberline {3.2}Organischer Szintillator}{14}{}\protected@file@percent }
\gdef \@abspage@last{15}
