\relax 
\providecommand\hyper@newdestlabel[2]{}
\providecommand\babel@aux[2]{}
\@nameuse{bbl@beforestart}
\catcode `"\active 
\providecommand\HyperFirstAtBeginDocument{\AtBeginDocument}
\HyperFirstAtBeginDocument{\ifx\hyper@anchor\@undefined
\global\let\oldcontentsline\contentsline
\gdef\contentsline#1#2#3#4{\oldcontentsline{#1}{#2}{#3}}
\global\let\oldnewlabel\newlabel
\gdef\newlabel#1#2{\newlabelxx{#1}#2}
\gdef\newlabelxx#1#2#3#4#5#6{\oldnewlabel{#1}{{#2}{#3}}}
\AtEndDocument{\ifx\hyper@anchor\@undefined
\let\contentsline\oldcontentsline
\let\newlabel\oldnewlabel
\fi}
\fi}
\global\let\hyper@last\relax 
\gdef\HyperFirstAtBeginDocument#1{#1}
\providecommand\HyField@AuxAddToFields[1]{}
\providecommand\HyField@AuxAddToCoFields[2]{}
\providecommand \oddpage@label [2]{}
\babel@aux{ngerman}{}
\@writefile{toc}{\contentsline {section}{\numberline {1}Durchführung}{1}{section.1}\protected@file@percent }
\@writefile{toc}{\contentsline {subsection}{\numberline {1.1}Teil A}{1}{subsection.1.1}\protected@file@percent }
\@writefile{toc}{\contentsline {subsection}{\numberline {1.2}Teil B}{1}{subsection.1.2}\protected@file@percent }
\@writefile{lof}{\contentsline {figure}{\numberline {1}{\ignorespaces Schleifen zur Amplituden-, Phasen- und Temperaturberechnung\relax }}{1}{figure.caption.1}\protected@file@percent }
\@writefile{toc}{\contentsline {section}{\numberline {2}Auswertung}{2}{section.2}\protected@file@percent }
\@writefile{lof}{\contentsline {figure}{\numberline {2}{\ignorespaces Fit der Messwerte anhand Lorentzkurve und Arctan. Unterhalb sind die dazugehörigen Residuals dargestellt.\relax }}{2}{figure.caption.2}\protected@file@percent }
\@writefile{lof}{\contentsline {figure}{\numberline {3}{\ignorespaces Fit der Messwerte anhand Lorentzkurve und Arctan. Unterhalb sind die dazugehörigen Residuals dargestellt. Die untere Abbildung dient der Bestimmung des Nulldurchgangs des $A\qopname  \relax o{cos}$ Signals\relax }}{3}{figure.caption.3}\protected@file@percent }
\@writefile{lof}{\contentsline {figure}{\numberline {4}{\ignorespaces Anhand jeder Messreihe wurde analog die Resonanzfrequenz berechnet und diese als Funktion der Temperatur dargestellt. Anhand 3 Messwerten kann man einen linearen Zusammenhang erwarten, dessen Ausgleichsgerade eine Steigung von -2.78 [1/sC] besitzt.\relax }}{4}{figure.caption.4}\protected@file@percent }
\providecommand*\caption@xref[2]{\@setref\relax\@undefined{#1}}
\newlabel{fig:B}{{4}{4}{Anhand jeder Messreihe wurde analog die Resonanzfrequenz berechnet und diese als Funktion der Temperatur dargestellt. Anhand 3 Messwerten kann man einen linearen Zusammenhang erwarten, dessen Ausgleichsgerade eine Steigung von -2.78 [1/sC] besitzt.\relax }{figure.caption.4}{}}
\newlabel{tab:1}{{\caption@xref {tab:1}{ on input line 64}}{4}{Auswertung Teil A}{table.caption.5}{}}
\@writefile{lot}{\contentsline {table}{\numberline {1}{\ignorespaces Zusammenfassung aller Ergebnisse aus Aufgabenteil A. Für die Grundfrequenz wurde auch die Methode der Eigenschwingung anhand des Nulldurchgangs durchgeführt, weshalb die Zeile doppelt jedoch mit verschiedenen Güten auftaucht.\relax }}{4}{table.caption.5}\protected@file@percent }
\@writefile{toc}{\contentsline {subsection}{\numberline {2.1}Auswertung Teil A}{4}{subsection.2.1}\protected@file@percent }
\@writefile{toc}{\contentsline {subsection}{\numberline {2.2}Auswertung Teil B}{5}{subsection.2.2}\protected@file@percent }
\@writefile{toc}{\contentsline {section}{\numberline {3}Diskussion}{5}{section.3}\protected@file@percent }
\@writefile{toc}{\contentsline {section}{\numberline {4}Erhaltene Tips}{5}{section.4}\protected@file@percent }
\gdef \@abspage@last{6}
