\relax 
\providecommand\hyper@newdestlabel[2]{}
\providecommand\babel@aux[2]{}
\@nameuse{bbl@beforestart}
\catcode `"\active 
\providecommand\HyperFirstAtBeginDocument{\AtBeginDocument}
\HyperFirstAtBeginDocument{\ifx\hyper@anchor\@undefined
\global\let\oldcontentsline\contentsline
\gdef\contentsline#1#2#3#4{\oldcontentsline{#1}{#2}{#3}}
\global\let\oldnewlabel\newlabel
\gdef\newlabel#1#2{\newlabelxx{#1}#2}
\gdef\newlabelxx#1#2#3#4#5#6{\oldnewlabel{#1}{{#2}{#3}}}
\AtEndDocument{\ifx\hyper@anchor\@undefined
\let\contentsline\oldcontentsline
\let\newlabel\oldnewlabel
\fi}
\fi}
\global\let\hyper@last\relax 
\gdef\HyperFirstAtBeginDocument#1{#1}
\providecommand\HyField@AuxAddToFields[1]{}
\providecommand\HyField@AuxAddToCoFields[2]{}
\providecommand \oddpage@label [2]{}
\babel@aux{ngerman}{}
\@writefile{toc}{\contentsline {section}{\numberline {1}Auswertung}{1}{section.1}\protected@file@percent }
\@writefile{lot}{\contentsline {table}{\numberline {1}{\ignorespaces Auswertung der Messergebnisse\relax }}{1}{table.caption.1}\protected@file@percent }
\providecommand*\caption@xref[2]{\@setref\relax\@undefined{#1}}
\newlabel{tab:1}{{1}{1}{Auswertung der Messergebnisse\relax }{table.caption.1}{}}
\@writefile{lof}{\contentsline {figure}{\numberline {1}{\ignorespaces Signalamplitude als Funktion der Antennenfrequenz. Die vertikalen Linien entsprechen den theoretisch zu erwartenden Frequenzen angepasst an die darüberstehenden Strom- und Spannungswerten.\relax }}{2}{figure.caption.2}\protected@file@percent }
\newlabel{fig:1}{{1}{2}{Signalamplitude als Funktion der Antennenfrequenz. Die vertikalen Linien entsprechen den theoretisch zu erwartenden Frequenzen angepasst an die darüberstehenden Strom- und Spannungswerten.\relax }{figure.caption.2}{}}
\@writefile{lof}{\contentsline {figure}{\numberline {2}{\ignorespaces Signalamplitude als Funktion der Antennenfrequenz. Markiert sind die von Hand ausgelesenen Werte sowie deren Abweichung, die aus der FWHM berechnet wurden.\relax }}{3}{figure.caption.3}\protected@file@percent }
\newlabel{fig:2}{{2}{3}{Signalamplitude als Funktion der Antennenfrequenz. Markiert sind die von Hand ausgelesenen Werte sowie deren Abweichung, die aus der FWHM berechnet wurden.\relax }{figure.caption.3}{}}
\@writefile{lof}{\contentsline {figure}{\numberline {3}{\ignorespaces Ausgleichsgerade anhand der Mittelwerte aus Tabelle \ref  *{tab:1}.\relax }}{4}{figure.caption.4}\protected@file@percent }
\newlabel{fig:3}{{3}{4}{Ausgleichsgerade anhand der Mittelwerte aus Tabelle \ref *{tab:1}.\relax }{figure.caption.4}{}}
\@writefile{lof}{\contentsline {figure}{\numberline {4}{\ignorespaces Ausgleichsgerade anhand der Mittelwerte aus Tabelle \ref  *{tab:1}.\relax }}{5}{figure.caption.5}\protected@file@percent }
\newlabel{fig:4}{{4}{5}{Ausgleichsgerade anhand der Mittelwerte aus Tabelle \ref *{tab:1}.\relax }{figure.caption.5}{}}
\@writefile{lof}{\contentsline {figure}{\numberline {5}{\ignorespaces Exponentialfit anhand der Lebendsdauerdaten\relax }}{6}{figure.caption.6}\protected@file@percent }
\newlabel{fig:5}{{5}{6}{Exponentialfit anhand der Lebendsdauerdaten\relax }{figure.caption.6}{}}
\@writefile{toc}{\contentsline {section}{\numberline {2}Diskussion}{6}{section.2}\protected@file@percent }
\@writefile{toc}{\contentsline {section}{\numberline {3}Feedback}{7}{section.3}\protected@file@percent }
\gdef \@abspage@last{7}
