\relax 
\providecommand{\transparent@use}[1]{}
\providecommand\zref@newlabel[2]{}
\providecommand\hyper@newdestlabel[2]{}
\providecommand\HyperFirstAtBeginDocument{\AtBeginDocument}
\HyperFirstAtBeginDocument{\ifx\hyper@anchor\@undefined
\global\let\oldnewlabel\newlabel
\gdef\newlabel#1#2{\newlabelxx{#1}#2}
\gdef\newlabelxx#1#2#3#4#5#6{\oldnewlabel{#1}{{#2}{#3}}}
\AtEndDocument{\ifx\hyper@anchor\@undefined
\let\newlabel\oldnewlabel
\fi}
\fi}
\global\let\hyper@last\relax 
\gdef\HyperFirstAtBeginDocument#1{#1}
\providecommand\HyField@AuxAddToFields[1]{}
\providecommand\HyField@AuxAddToCoFields[2]{}
\providecommand\babel@aux[2]{}
\@nameuse{bbl@beforestart}
\catcode `"\active 
\providecommand\pbs@newkey[2]{}
\providecommand\pbs@seq@push@cx[2]{}
\providecommand\@anim@newkey[2]{}
\babel@aux{ngerman}{}
\@writefile{nav}{\headcommand {\slideentry {0}{0}{1}{1/1}{}{0}}}
\@writefile{nav}{\headcommand {\beamer@framepages {1}{1}}}
\@writefile{nav}{\headcommand {\slideentry {0}{0}{2}{2/4}{}{0}}}
\@writefile{nav}{\headcommand {\beamer@framepages {2}{4}}}
\@writefile{toc}{\beamer@sectionintoc {1}{Einleitung}{5}{0}{1}}
\@writefile{nav}{\headcommand {\beamer@sectionpages {1}{4}}}
\@writefile{nav}{\headcommand {\beamer@subsectionpages {1}{4}}}
\@writefile{nav}{\headcommand {\sectionentry {1}{Einleitung}{5}{Einleitung}{0}}}
\@writefile{nav}{\headcommand {\slideentry {1}{0}{1}{5/5}{}{0}}}
\@writefile{nav}{\headcommand {\beamer@framepages {5}{5}}}
\@writefile{nav}{\headcommand {\slideentry {1}{0}{2}{6/7}{}{0}}}
\@writefile{nav}{\headcommand {\beamer@framepages {6}{7}}}
\@writefile{nav}{\headcommand {\slideentry {1}{0}{3}{8/8}{}{0}}}
\@writefile{nav}{\headcommand {\beamer@framepages {8}{8}}}
\@writefile{toc}{\beamer@sectionintoc {2}{Fehlerfortpflanzung}{9}{0}{2}}
\@writefile{nav}{\headcommand {\beamer@sectionpages {5}{8}}}
\@writefile{nav}{\headcommand {\beamer@subsectionpages {5}{8}}}
\@writefile{nav}{\headcommand {\sectionentry {2}{Fehlerfortpflanzung}{9}{Fehlerfortpflanzung}{0}}}
\@writefile{nav}{\headcommand {\slideentry {2}{0}{1}{9/12}{}{0}}}
\@writefile{nav}{\headcommand {\beamer@framepages {9}{12}}}
\@writefile{nav}{\headcommand {\slideentry {2}{0}{2}{13/16}{}{0}}}
\@writefile{nav}{\headcommand {\beamer@framepages {13}{16}}}
\@writefile{toc}{\beamer@sectionintoc {3}{Methode der kleinsten Quadrate}{17}{0}{3}}
\@writefile{nav}{\headcommand {\beamer@sectionpages {9}{16}}}
\@writefile{nav}{\headcommand {\beamer@subsectionpages {9}{16}}}
\@writefile{nav}{\headcommand {\sectionentry {3}{Methode der kleinsten Quadrate}{17}{Methode der kleinsten Quadrate}{0}}}
\@writefile{nav}{\headcommand {\slideentry {3}{0}{1}{17/20}{}{0}}}
\@writefile{nav}{\headcommand {\beamer@framepages {17}{20}}}
\@writefile{nav}{\headcommand {\slideentry {3}{0}{2}{21/23}{}{0}}}
\@writefile{nav}{\headcommand {\beamer@framepages {21}{23}}}
\newlabel{fig:2}{{1}{24}{Methode der kleinsten Quadrate}{Doc-Start}{}}
\@writefile{snm}{\beamer@slide {fig:2}{24}}
\@writefile{nav}{\headcommand {\slideentry {3}{0}{3}{24/30}{}{0}}}
\@writefile{nav}{\headcommand {\beamer@framepages {24}{30}}}
\@writefile{toc}{\beamer@sectionintoc {4}{Maximum Likelihood Methode}{31}{0}{4}}
\@writefile{nav}{\headcommand {\beamer@sectionpages {17}{30}}}
\@writefile{nav}{\headcommand {\beamer@subsectionpages {17}{30}}}
\@writefile{nav}{\headcommand {\sectionentry {4}{Maximum Likelihood Methode}{31}{Maximum Likelihood Methode}{0}}}
\@writefile{nav}{\headcommand {\slideentry {4}{0}{1}{31/43}{}{0}}}
\@writefile{nav}{\headcommand {\beamer@framepages {31}{43}}}
\@writefile{toc}{\beamer@sectionintoc {5}{Bayessche Paramterschätzung}{44}{0}{5}}
\@writefile{nav}{\headcommand {\beamer@sectionpages {31}{43}}}
\@writefile{nav}{\headcommand {\beamer@subsectionpages {31}{43}}}
\@writefile{nav}{\headcommand {\sectionentry {5}{Bayessche Paramterschätzung}{44}{Bayessche Paramterschätzung}{0}}}
\@writefile{nav}{\headcommand {\slideentry {5}{0}{1}{44/58}{}{0}}}
\@writefile{nav}{\headcommand {\beamer@framepages {44}{58}}}
\@writefile{nav}{\headcommand {\slideentry {5}{0}{2}{59/62}{}{0}}}
\@writefile{nav}{\headcommand {\beamer@framepages {59}{62}}}
\@writefile{nav}{\headcommand {\beamer@partpages {1}{62}}}
\@writefile{nav}{\headcommand {\beamer@subsectionpages {44}{62}}}
\@writefile{nav}{\headcommand {\beamer@sectionpages {44}{62}}}
\@writefile{nav}{\headcommand {\beamer@documentpages {62}}}
\@writefile{nav}{\headcommand {\gdef \inserttotalframenumber {13}}}
\gdef\svg@ink@ver@settings{{\m@ne }{inkscape}{\m@ne }}
\gdef \@abspage@last{62}
