\babel@toc {ngerman}{}\relax 
\beamer@sectionintoc {1}{Einleitung}{5}{0}{1}
\beamer@sectionintoc {2}{Fehlerfortpflanzung}{9}{0}{2}
\beamer@sectionintoc {3}{Methode der kleinsten Quadrate}{17}{0}{3}
\beamer@sectionintoc {4}{Maximum Likelihood Methode}{31}{0}{4}
\beamer@sectionintoc {5}{Bayessche Paramterschätzung}{44}{0}{5}
