x	intensity
0	-14029894
1	-13740931
2	-13684032
3	-13630144
4	-13575872
5	-13536000
6	-13491328
7	-13451200
8	-13438592
9	-13448384
10	-13469312
11	-13500416
12	-13544896
13	-13604288
14	-13684224
15	-13771968
16	-13842432
17	-13913792
18	-13995968
19	-14069120
20	-14129600
21	-14176063
22	-14204671
23	-14225023
24	-14244287
25	-14271551
26	-14300863
27	-14316158
28	-14319164
29	-14325884
30	-14333887
31	-14332159
32	-14321983
33	-14309631
34	-14307903
35	-14303551
36	-14294847
37	-14296959
38	-14302847
39	-14298687
40	-14282623
41	-14258047
42	-14233343
43	-14213183
44	-14197823
45	-14190975
46	-14173439
47	-14145599
48	-14107071
49	-14060287
50	-14022591
51	-13987072
52	-13937344
53	-13885888
54	-13840128
55	-13785600
56	-13718016
57	-13644032
58	-13574272
59	-13512448
60	-13455616
61	-13399168
62	-13354048
63	-13327296
64	-13324608
65	-13336960
66	-13370624
67	-13425408
68	-13485696
69	-13545344
70	-13614080
71	-13676352
72	-13715712
73	-13734080
74	-13759104
75	-13792640
76	-13809792
77	-13803008
78	-13789632
79	-13769344
80	-13746880
81	-13708032
82	-13643840
83	-13561984
84	-13472448
85	-13369856
86	-13243648
87	-13088000
88	-12911104
89	-12715392
90	-12502784
91	-12288192
92	-12089152
93	-11925376
94	-11819456
95	-11791744
96	-11834752
97	-11946304
98	-12115008
99	-12321216
100	-12543616
101	-12752256
102	-12959296
103	-13164288
104	-13346880
105	-13488064
106	-13586816
107	-13671424
108	-13746432
109	-13785408
110	-13794880
111	-13798976
112	-13798144
113	-13788288
114	-13775808
115	-13756160
116	-13728448
117	-13683328
118	-13625088
119	-13568384
120	-13516608
121	-13458688
122	-13399360
123	-13349824
124	-13309632
125	-13287744
126	-13279360
127	-13267264
128	-13277440
129	-13336128
130	-13414592
131	-13491968
132	-13567936
133	-13640512
134	-13708224
135	-13785536
136	-13873408
137	-13961344
138	-14026559
139	-14051968
140	-14071744
141	-14113728
142	-14158143
143	-14181759
144	-14196031
145	-14206975
146	-14211519
147	-14205247
148	-14203647
149	-14215295
150	-14225855
151	-14224767
152	-14214591
153	-14211263
154	-14209407
155	-14199359
156	-14188543
157	-14172479
158	-14153471
159	-14141823
160	-14134015
161	-14125247
162	-14117440
163	-14093952
164	-14061248
165	-14032064
166	-14006272
167	-13981184
168	-13953664
169	-13916800
170	-13873920
171	-13837440
172	-13796736
173	-13733184
174	-13665088
175	-13604864
176	-13538112
177	-13459200
178	-13378624
179	-13310400
180	-13244096
181	-13155264
182	-13081472
183	-13058624
184	-13066240
185	-13069696
186	-13094272
187	-13152448
188	-13219392
189	-13276224
190	-13334592
191	-13410048
192	-13484288
193	-13551936
194	-13615168
195	-13649984
196	-13657984
197	-13661248
198	-13658304
199	-13637099
200	-13606570
201	-13564160
202	-13523648
203	-13491392
204	-13450752
205	-13394304
206	-13311680
207	-13209472
208	-13075392
209	-12904576
210	-12712320
211	-12489024
212	-12243584
213	-12015104
214	-11838144
215	-11719680
216	-11644352
217	-11623808
218	-11671808
219	-11770048
220	-11906112
221	-12088832
222	-12314048
223	-12549632
224	-12773824
225	-12963776
226	-13120832
227	-13275840
228	-13413760
229	-13511488
230	-13578240
231	-13623168
232	-13643136
233	-13647360
234	-13659200
235	-13671808
236	-13671040
237	-13652928
238	-13633728
239	-13615296
240	-13584512
241	-13537600
242	-13487104
243	-13434560
244	-13376832
245	-13307008
246	-13231936
247	-13170816
248	-13133184
249	-13110720
250	-13099648
251	-13095168
252	-13111808
253	-13157504
254	-13219520
255	-13297792
256	-13382016
257	-13469824
258	-13558912
259	-13638656
260	-13706176
261	-13771776
262	-13829248
263	-13880192
264	-13930688
265	-13981760
266	-14023488
267	-14057984
268	-14076800
269	-14075008
270	-14065728
271	-14068480
272	-14079040
273	-14089024
274	-14105920
275	-14134144
276	-14150912
277	-14149760
278	-14140800
279	-14128704
280	-14108736
281	-14087232
282	-14074368
283	-14080896
284	-14088320
285	-14089152
286	-14086400
287	-14082560
288	-14068928
289	-14041216
290	-14011136
291	-13990848
292	-13973952
293	-13944896
294	-13913664
295	-13889344
296	-13867648
297	-13835072
298	-13801472
299	-13759680
300	-13702080
301	-13624768
302	-13552896
303	-13492928
304	-13420736
305	-13317312
306	-13213248
307	-13147136
308	-13112640
309	-13073024
310	-13041472
311	-13038848
312	-13053568
313	-13065920
314	-13076928
315	-13113024
316	-13165248
317	-13231744
318	-13309696
319	-13386112
320	-13451520
321	-13514624
322	-13572352
323	-13616064
324	-13645632
325	-13658048
326	-13655040
327	-13657152
328	-13664576
329	-13647680
330	-13606848
331	-13564096
332	-13529344
333	-13485056
334	-13422080
335	-13347008
336	-13253184
337	-13142400
338	-12999936
339	-12802496
340	-12576320
341	-12361984
342	-12162240
343	-11978432
344	-11826432
345	-11711232
346	-11627840
347	-11609536
348	-11672896
349	-11797440
350	-11962688
351	-12158080
352	-12365056
353	-12543936
354	-12707712
355	-12888704
356	-13079488
357	-13236800
358	-13367104
359	-13474304
360	-13541440
361	-13584256
362	-13616256
363	-13631424
364	-13634624
365	-13654336
366	-13675776
367	-13682432
368	-13675840
369	-13659264
370	-13631232
371	-13591808
372	-13557952
373	-13525184
374	-13478016
375	-13407872
376	-13342400
377	-13283904
378	-13216704
379	-13150208
380	-13096384
381	-13063680
382	-13046272
383	-13043840
384	-13062720
385	-13121152
386	-13199360
387	-13269952
388	-13340608
389	-13411968
390	-13483776
391	-13555057
392	-13631856
393	-13715328
394	-13787136
395	-13836224
396	-13882240
397	-13926400
398	-13959744
399	-13996288
400	-14039936
401	-14072640
402	-14091520
403	-14110464
404	-14119104
405	-14108864
406	-14095936
407	-14101120
408	-14123072
409	-14153280
410	-14164800
411	-14141120
412	-14112064
413	-14118720
414	-14131328
415	-14116224
416	-14097728
417	-14103680
418	-14105664
419	-14085568
420	-14065344
421	-14070080
422	-14074816
423	-14058816
424	-14032128
425	-14004224
426	-13983488
427	-13967488
428	-13954944
429	-13938048
430	-13914048
431	-13886784
432	-13855680
433	-13813824
434	-13766592
435	-13732736
436	-13705152
437	-13649408
438	-13568448
439	-13488000
440	-13402240
441	-13316416
442	-13238080
443	-13159296
444	-13084096
445	-13023872
446	-12985984
447	-12979200
448	-12986816
449	-12991616
450	-13001088
451	-13022400
452	-13061696
453	-13134400
454	-13214528
455	-13287296
456	-13361472
457	-13436160
458	-13492864
459	-13532160
460	-13569920
461	-13610624
462	-13642752
463	-13652160
464	-13652096
465	-13647360
466	-13637056
467	-13635008
468	-13634432
469	-13616128
470	-13580544
471	-13529152
472	-13478208
473	-13414784
474	-13322688
475	-13204800
476	-13072384
477	-12920256
478	-12741632
479	-12547648
480	-12350272
481	-12155840
482	-11990400
483	-11874304
484	-11807488
485	-11783808
486	-11796224
487	-11844352
488	-11923200
489	-12034688
490	-12179904
491	-12350592
492	-12537152
493	-12723136
494	-12904960
495	-13069824
496	-13223360
497	-13346176
498	-13441408
499	-13524864
500	-13590656
501	-13627392
502	-13654464
503	-13690240
504	-13718912
505	-13727615
506	-13726592
507	-13732224
508	-13735360
509	-13722304
510	-13707904
511	-13693632
512	-13663728
513	-13617584
514	-13561216
515	-13508096
516	-13456512
517	-13389696
518	-13320384
519	-13253376
520	-13185408
521	-13121600
522	-13072192
523	-13047360
524	-13052096
525	-13078464
526	-13113984
527	-13158080
528	-13214912
529	-13271168
530	-13328768
531	-13393024
532	-13474432
533	-13559424
534	-13637376
535	-13694976
536	-13744320
537	-13800000
538	-13852800
539	-13902528
540	-13951936
541	-13980928
542	-13994816
543	-14014656
544	-14036480
545	-14053184
546	-14076032
547	-14103552
548	-14120384
549	-14125312
550	-14130048
551	-14134848
552	-14133760
553	-14135360
554	-14139584
555	-14146880
556	-14146112
557	-14127040
558	-14111232
559	-14105792
560	-14101632
561	-14095040
562	-14097216
563	-14104768
564	-14100480
565	-14087808
566	-14075648
567	-14071296
568	-14070336
569	-14056128
570	-14042752
571	-14037888
572	-14022912
573	-13989440
574	-13955840
575	-13933312
576	-13920256
577	-13908928
578	-13894272
579	-13859136
580	-13814720
581	-13772480
582	-13740224
583	-13715072
584	-13663296
585	-13572032
586	-13481408
587	-13406528
588	-13340544
589	-13279552
590	-13230080
591	-13168320
592	-13104000
593	-13051328
594	-13020800
595	-13018752
596	-13040704
597	-13080128
598	-13123584
599	-13154688
600	-13195968
601	-13257152
602	-13332288
603	-13420672
604	-13500672
605	-13558016
606	-13599040
607	-13633024
608	-13662528
609	-13690752
610	-13711680
611	-13722944
612	-13730304
613	-13730496
614	-13728832
615	-13732800
616	-13730368
617	-13702336
618	-13668992
619	-13642944
620	-13617472
621	-13574272
622	-13517888
623	-13459072
624	-13384960
625	-13282432
626	-13137728
627	-12964160
628	-12793600
629	-12636096
630	-12477184
631	-12323072
632	-12196672
633	-12106560
634	-12042176
635	-12007104
636	-12009600
637	-12051264
638	-12118336
639	-12210496
640	-12332288
641	-12471872
642	-12605888
643	-12738048
644	-12876800
645	-13026368
646	-13165504
647	-13275968
648	-13364672
649	-13442880
650	-13520576
651	-13604032
652	-13676864
653	-13723008
654	-13749504
655	-13763776
656	-13772864
657	-13776384
658	-13777856
659	-13775744
660	-13770432
661	-13757504
662	-13744767
663	-13738559
664	-13729856
665	-13701952
666	-13658752
667	-13615808
668	-13566208
669	-13504256
670	-13438976
671	-13386304
672	-13337152
673	-13284032
674	-13226624
675	-13175424
676	-13135360
677	-13112960
678	-13113920
679	-13152256
680	-13195584
681	-13219712
682	-13247296
683	-13283648
684	-13328192
685	-13388288
686	-13463360
687	-13547776
688	-13624192
689	-13671744
690	-13704384
691	-13746944
692	-13790464
693	-13825216
694	-13862592
695	-13912576
696	-13953600
697	-13972287
698	-13987455
699	-14012863
700	-14035328
701	-14044544
702	-14047040
703	-14060096
704	-14071616
705	-14079680
706	-14092224
707	-14108352
708	-14112576
709	-14100992
710	-14089664
711	-14084480
712	-14079360
713	-14084672
714	-14096576
715	-14106047
716	-14111616
717	-14112128
718	-14106048
719	-14084672
720	-14063616
721	-14059904
722	-14061120
723	-14063104
724	-14069824
725	-14065472
726	-14048960
727	-14029630
728	-14011773
729	-13998976
730	-13993280
731	-13982144
732	-13970048
733	-13967743
734	-13957696
735	-13932160
736	-13903039
737	-13889471
738	-13875968
739	-13840704
740	-13792064
741	-13747968
742	-13706688
743	-13658176
744	-13603712
745	-13551680
746	-13491200
747	-13412736
748	-13324992
749	-13257152
750	-13204736
751	-13156992
752	-13111232
753	-13075520
754	-13045440
755	-13027840
756	-13024448
757	-13038784
758	-13057664
759	-13078592
760	-13118144
761	-13178944
762	-13236608
763	-13288704
764	-13339328
765	-13380160
766	-13426560
767	-13493504
768	-13556480
769	-13587392
770	-13605696
771	-13634112
772	-13657344
773	-13671744
774	-13675264
775	-13675520
776	-13674496
777	-13679360
778	-13681984
779	-13674496
780	-13662912
781	-13656896
782	-13648448
783	-13633472
784	-13605632
785	-13566144
786	-13518592
787	-13455808
788	-13370688
789	-13276288
790	-13158080
791	-13000960
792	-12840704
793	-12712960
794	-12597184
795	-12472960
796	-12364032
797	-12289088
798	-12248320
799	-12217984
800	-12190656
801	-12186880
802	-12212736
803	-12268544
804	-12348992
805	-12447424
806	-12553920
807	-12654656
808	-12754176
809	-12866240
810	-12986432
811	-13097088
812	-13191808
813	-13272960
814	-13359808
815	-13461888
816	-13543744
817	-13589760
818	-13628672
819	-13665728
820	-13696832
821	-13729536
822	-13762176
823	-13784256
824	-13791936
825	-13787072
826	-13782016
827	-13777344
828	-13780928
829	-13787456
830	-13790784
831	-13778880
832	-13760704
833	-13739520
834	-13707904
835	-13667328
836	-13622784
837	-13571136
838	-13508032
839	-13435776
840	-13376640
841	-13334080
842	-13289664
843	-13239872
844	-13190592
845	-13152256
846	-13128960
847	-13133376
848	-13143808
849	-13139136
850	-13137216
851	-13176384
852	-13233216
853	-13282816
854	-13333056
855	-13399616
856	-13472064
857	-13540544
858	-13594944
859	-13630400
860	-13656832
861	-13694205
862	-13742205
863	-13794048
864	-13839295
865	-13878591
866	-13903296
867	-13918848
868	-13938624
869	-13961152
870	-13977472
871	-13989760
872	-14007040
873	-14024768
874	-14037248
875	-14052096
876	-14067904
877	-14071552
878	-14064000
879	-14065280
880	-14074495
881	-14075775
882	-14075328
883	-14083264
884	-14088896
885	-14086976
886	-14082304
887	-14079168
888	-14075072
889	-14072128
890	-14069952
891	-14070592
892	-14076992
893	-14091712
894	-14094720
895	-14080320
896	-14068736
897	-14065152
898	-14064960
899	-14063808
900	-14064576
901	-14061504
902	-14049088
903	-14030272
904	-14015936
905	-14016128
906	-14015360
907	-14009216
908	-13997376
909	-13985984
910	-13978112
911	-13973632
912	-13968256
913	-13953984
914	-13934272
915	-13918464
916	-13905344
917	-13887808
918	-13856896
919	-13810816
920	-13769792
921	-13746368
922	-13712896
923	-13647872
924	-13574976
925	-13507328
926	-13443328
927	-13374592
928	-13304064
929	-13255424
930	-13231616
931	-13215104
932	-13185600
933	-13149376
934	-13133568
935	-13143936
936	-13154816
937	-13162816
938	-13186368
939	-13224896
940	-13262208
941	-13304576
942	-13357440
943	-13405760
944	-13457216
945	-13512512
946	-13557248
947	-13583296
948	-13607040
949	-13637056
950	-13664768
951	-13688768
952	-13718656
953	-13757696
954	-13785920
955	-13788736
956	-13794240
957	-13811456
958	-13825024
959	-13822400
960	-13809856
961	-13796352
962	-13787520
963	-13787520
964	-13787456
965	-13775232
966	-13757248
967	-13738816
968	-13713472
969	-13676480
970	-13627392
971	-13570688
972	-13500608
973	-13408640
974	-13306176
975	-13201408
976	-13101568
977	-13004160
978	-12909760
979	-12833664
980	-12765440
981	-12689856
982	-12626624
983	-12584512
984	-12560448
985	-12547968
986	-12550080
987	-12573376
988	-12620352
989	-12700416
990	-12779840
991	-12845632
992	-12919936
993	-12996864
994	-13071168
995	-13155264
996	-13247808
997	-13329856
998	-13392064
999	-13445696
1000	-13502656
1001	-13567936
1002	-13636096
1003	-13690048
1004	-13730368
1005	-13770048
1006	-13801536
1007	-13829696
1008	-13859328
1009	-13884032
1010	-13900288
1011	-13916608
1012	-13928704
1013	-13926208
1014	-13916672
1015	-13920704
1016	-13940672
1017	-13960832
1018	-13962880
1019	-13950144
1020	-13926144
1021	-13904832
1022	-13895168
1023	-13891712
1024	-13880320
1025	-13849792
1026	-13806400
1027	-13767040
1028	-13730240
1029	-13695104
1030	-13659008
1031	-13617664
1032	-13565376
1033	-13520000
1034	-13477696
1035	-13438016
1036	-13404416
1037	-13384192
1038	-13386368
1039	-13398336
1040	-13405824
1041	-13411968
1042	-13427712
1043	-13452608
1044	-13474560
1045	-13491968
1046	-13517504
1047	-13565824
1048	-13616896
1049	-13659968
1050	-13695360
1051	-13725760
1052	-13764288
1053	-13830336
1054	-13896064
1055	-13934720
1056	-13960512
1057	-13999296
1058	-14039168
1059	-14072576
1060	-14095039
1061	-14110848
1062	-14130048
1063	-14158015
1064	-14188223
1065	-14203135
1066	-14212992
1067	-14218688
1068	-14219520
1069	-14221888
1070	-14229247
1071	-14230592
1072	-14233792
1073	-14246335
1074	-14257471
1075	-14253631
1076	-14251455
1077	-14277055
1078	-14306559
1079	-14322495
1080	-14319551
1081	-14310463
1082	-14311615
1083	-14318335
1084	-14324735
1085	-14326783
1086	-14323903
1087	-14316543
1088	-14313919
1089	-14312063
1090	-14311487
1091	-14314175
1092	-14312703
1093	-14311487
1094	-14320703
1095	-14329983
1096	-14338623
1097	-14343935
1098	-14354239
1099	-14365823
1100	-14365823
1101	-14354239
1102	-14339584
1103	-14330496
1104	-14327871
1105	-14334975
1106	-14340863
1107	-14318719
1108	-14289407
1109	-14281215
1110	-14282431
1111	-14280511
1112	-14291391
1113	-14291647
1114	-14275072
1115	-14253824
1116	-14243134
1117	-14246462
1118	-14249727
1119	-14242047
1120	-14217983
1121	-14185216
1122	-14154368
1123	-14115200
1124	-14077632
1125	-14056384
1126	-14030400
1127	-13984000
1128	-13931968
1129	-13890496
1130	-13850240
1131	-13808960
1132	-13772032
1133	-13741824
1134	-13707328
1135	-13671104
1136	-13646400
1137	-13629056
1138	-13616576
1139	-13612928
1140	-13612416
1141	-13612736
1142	-13616896
1143	-13621696
1144	-13621312
1145	-13630848
1146	-13658240
1147	-13694976
1148	-13741632
1149	-13788608
1150	-13824512
1151	-13857472
1152	-13903936
1153	-13949504
1154	-13983168
1155	-14003392
1156	-14020288
1157	-14039680
1158	-14064448
1159	-14102208
1160	-14122752
1161	-14118464
1162	-14122368
1163	-14145408
1164	-14165184
1165	-14185536
1166	-14203775
1167	-14215871
1168	-14216831
1169	-14208703
1170	-14201407
1171	-14205439
1172	-14209407
1173	-14218047
1174	-14220927
1175	-14220863
1176	-14219519
1177	-14210559
1178	-14198335
1179	-14195647
1180	-14181119
1181	-14137151
1182	-14090112
1183	-14062400
1184	-14033664
1185	-13986048
1186	-13926144
1187	-13856064
1188	-13783424
1189	-13720000
1190	-13669184
1191	-13620480
1192	-13566528
1193	-13505600
1194	-13455232
1195	-13416512
1196	-13384960
1197	-13363840
1198	-13342912
1199	-13325376
1200	-13319872
1201	-13329984
1202	-13344960
1203	-13359488
1204	-13382464
1205	-13427136
1206	-13478144
1207	-13515136
1208	-13550656
1209	-13599488
1210	-13663296
1211	-13731392
1212	-13797632
1213	-13844288
1214	-13889216
1215	-13946240
1216	-14002112
1217	-14046592
1218	-14096448
1219	-14145664
1220	-14184128
1221	-14223423
1222	-14266752
1223	-14298624
1224	-14320640
1225	-14340607
1226	-14362175
1227	-14389695
1228	-14407167
1229	-14406463
1230	-14410111
1231	-14431487
1232	-14457151
1233	-14486207
1234	-14500735
1235	-14489343
1236	-14475455
1237	-14477695
1238	-14486911
1239	-14488127
1240	-14493567
1241	-14500927
1242	-14507519
1243	-14515199
1244	-14516415
1245	-14505023
1246	-14486399
1247	-14474303
1248	-14462335
1249	-14438463
1250	-14410559
1251	-14394367
1252	-14370751
1253	-14327680
1254	-14279040
1255	-14242496
1256	-14211712
1257	-14189312
1258	-14172352
1259	-14165632
1260	-14159616
1261	-14139328
1262	-14118656
1263	-14108416
1264	-14095168
1265	-14082816
1266	-14078528
1267	-14086784
1268	-14100416
1269	-14114752
1270	-14136320
1271	-14165504
1272	-14196800
1273	-14220479
1274	-14248127
1275	-14281343
1276	-14304255
1277	-14320895
1278	-14336703
1279	-14339775
1280	-14496836
1281	-14714998
1282	NaN
