\relax 
\providecommand\hyper@newdestlabel[2]{}
\providecommand\babel@aux[2]{}
\@nameuse{bbl@beforestart}
\providecommand\HyperFirstAtBeginDocument{\AtBeginDocument}
\HyperFirstAtBeginDocument{\ifx\hyper@anchor\@undefined
\global\let\oldnewlabel\newlabel
\gdef\newlabel#1#2{\newlabelxx{#1}#2}
\gdef\newlabelxx#1#2#3#4#5#6{\oldnewlabel{#1}{{#2}{#3}}}
\AtEndDocument{\ifx\hyper@anchor\@undefined
\let\newlabel\oldnewlabel
\fi}
\fi}
\global\let\hyper@last\relax 
\gdef\HyperFirstAtBeginDocument#1{#1}
\providecommand\HyField@AuxAddToFields[1]{}
\providecommand\HyField@AuxAddToCoFields[2]{}
\abx@aux@refcontext{nty/global//global/global}
\providecommand \oddpage@label [2]{}
\babel@aux{english}{}
\gincltex@bb{diagrams/muon-_decay.tex}{0}{0}{135.69608}{124.28006}
\gincltex@bb{diagrams/muon+_decay.tex}{0}{0}{135.69608}{124.99335}
\gincltex@bb{diagrams/muon_capture.tex}{0}{0}{188.76582}{123.54109}
\@writefile{toc}{\contentsline {section}{\numberline {1}Theory}{1}{section.1}\protected@file@percent }
\@writefile{toc}{\contentsline {subsection}{\numberline {1.1}Muon decay and parity violation}{1}{subsection.1.1}\protected@file@percent }
\@writefile{lof}{\contentsline {figure}{\numberline {1}{\ignorespaces $\mu ^{-}$ decay\relax }}{1}{figure.1}\protected@file@percent }
\providecommand*\caption@xref[2]{\@setref\relax\@undefined{#1}}
\newlabel{fig:muon-}{{1}{1}{$\mu ^{-}$ decay\relax }{figure.1}{}}
\@writefile{lof}{\contentsline {figure}{\numberline {2}{\ignorespaces $\mu ^{+}$ decay\relax }}{1}{figure.2}\protected@file@percent }
\newlabel{fig:muon+}{{2}{1}{$\mu ^{+}$ decay\relax }{figure.2}{}}
\@writefile{lof}{\contentsline {figure}{\numberline {3}{\ignorespaces $\mu ^{-}$ capture\relax }}{1}{figure.3}\protected@file@percent }
\newlabel{fig:muon_capture}{{3}{1}{$\mu ^{-}$ capture\relax }{figure.3}{}}
\@writefile{lof}{\contentsline {figure}{\numberline {4}{\ignorespaces Parity violation in muon decay\relax }}{2}{figure.4}\protected@file@percent }
\newlabel{fig:violation}{{4}{2}{Parity violation in muon decay\relax }{figure.4}{}}
\@writefile{toc}{\contentsline {subsection}{\numberline {1.2}Charged paritcles interaction with matter}{2}{subsection.1.2}\protected@file@percent }
\@writefile{lof}{\contentsline {figure}{\numberline {5}{\ignorespaces experimental setup\relax }}{2}{figure.5}\protected@file@percent }
\newlabel{fig:setup}{{5}{2}{experimental setup\relax }{figure.5}{}}
\abx@aux@cite{0}{Photomultiplier}
\abx@aux@segm{0}{0}{Photomultiplier}
\abx@aux@cite{0}{Photomultiplier}
\abx@aux@segm{0}{0}{Photomultiplier}
\@writefile{toc}{\contentsline {section}{\numberline {2}Execution}{3}{section.2}\protected@file@percent }
\@writefile{toc}{\contentsline {section}{\numberline {3}Basic understanding}{3}{section.3}\protected@file@percent }
\@writefile{lof}{\contentsline {figure}{\numberline {6}{\ignorespaces Schematic of a photomultiplier tube\blx@tocontentsinit {0}\cite {Photomultiplier}\relax }}{3}{figure.6}\protected@file@percent }
\newlabel{fig:photomultiplier}{{6}{3}{Schematic of a photomultiplier tube\cite {Photomultiplier}\relax }{figure.6}{}}
\@writefile{lot}{\contentsline {table}{\numberline {1}{\ignorespaces average pulse width $\Delta t$\relax }}{3}{table.1}\protected@file@percent }
\newlabel{tab:pulsewidth}{{1}{3}{average pulse width $\Delta t$\relax }{table.1}{}}
\@writefile{lof}{\contentsline {figure}{\numberline {7}{\ignorespaces sketch of photomultiplier pulse. The x-axis depicts time.\relax }}{3}{figure.7}\protected@file@percent }
\@writefile{lot}{\contentsline {table}{\numberline {2}{\ignorespaces final scintillator settings and measured efficiencies\relax }}{4}{table.2}\protected@file@percent }
\newlabel{tab:settings}{{2}{4}{final scintillator settings and measured efficiencies\relax }{table.2}{}}
\@writefile{toc}{\contentsline {subsection}{\numberline {3.1}Data evaluation in absence of a magnetic field}{4}{subsection.3.1}\protected@file@percent }
\@writefile{lot}{\contentsline {table}{\numberline {3}{\ignorespaces accidental coincidence rate of 2 scintillators\relax }}{4}{table.3}\protected@file@percent }
\newlabel{tab:rate}{{3}{4}{accidental coincidence rate of 2 scintillators\relax }{table.3}{}}
\@writefile{lot}{\contentsline {table}{\numberline {4}{\ignorespaces scaling values in order to reduce after-pulses\relax }}{5}{table.4}\protected@file@percent }
\newlabel{tab:scaling}{{4}{5}{scaling values in order to reduce after-pulses\relax }{table.4}{}}
\newlabel{eq:s}{{8}{5}{Data evaluation in absence of a magnetic field}{equation.3.8}{}}
\newlabel{eq:N}{{14}{5}{Data evaluation in absence of a magnetic field}{equation.3.14}{}}
\abx@aux@cite{0}{Mohr_2018}
\abx@aux@segm{0}{0}{Mohr_2018}
\@writefile{lof}{\contentsline {figure}{\numberline {8}{\ignorespaces number of corrected upward decays in the second detector. Using Lebendsdauer.C the red fitting curve has been achieved.\relax }}{6}{figure.8}\protected@file@percent }
\newlabel{fig:firstfit}{{8}{6}{number of corrected upward decays in the second detector. Using Lebendsdauer.C the red fitting curve has been achieved.\relax }{figure.8}{}}
\@writefile{lof}{\contentsline {figure}{\numberline {9}{\ignorespaces execution of Lebendsdauer.pdf\relax }}{6}{figure.9}\protected@file@percent }
\newlabel{fig:lifetime}{{9}{6}{execution of Lebendsdauer.pdf\relax }{figure.9}{}}
\@writefile{lot}{\contentsline {table}{\numberline {5}{\ignorespaces impact on $\tau $ if exposed to changes of scaling factor $s$\relax }}{6}{table.5}\protected@file@percent }
\newlabel{tab:change_s}{{5}{6}{impact on $\tau $ if exposed to changes of scaling factor $s$\relax }{table.5}{}}
\abx@aux@cite{0}{Mohr_2018}
\abx@aux@segm{0}{0}{Mohr_2018}
\@writefile{lof}{\contentsline {figure}{\numberline {10}{\ignorespaces determination of $\tau _0$ and $\tau _c$\relax }}{7}{figure.10}\protected@file@percent }
\newlabel{fig:einfang}{{10}{7}{determination of $\tau _0$ and $\tau _c$\relax }{figure.10}{}}
\@writefile{lof}{\contentsline {figure}{\numberline {11}{\ignorespaces determination of $\tau _0$ and $\tau _c$ with $f=f+2\sigma $ and $s=s(1-0.1)$\relax }}{7}{figure.11}\protected@file@percent }
\newlabel{fig:einfang_2}{{11}{7}{determination of $\tau _0$ and $\tau _c$ with $f=f+2\sigma $ and $s=s(1-0.1)$\relax }{figure.11}{}}
\@writefile{lof}{\contentsline {figure}{\numberline {12}{\ignorespaces final results using $s=s(1+5\%)$, $f=f+\sigma $\relax }}{7}{figure.12}\protected@file@percent }
\newlabel{fig:results}{{12}{7}{final results using $s=s(1+5\%)$, $f=f+\sigma $\relax }{figure.12}{}}
\@writefile{toc}{\contentsline {subsection}{\numberline {3.2}Data evaluation with magnetic field}{7}{subsection.3.2}\protected@file@percent }
\@writefile{lot}{\contentsline {table}{\numberline {6}{\ignorespaces scaling values in order to reduce after-pulses with additional magnetic field\relax }}{8}{table.6}\protected@file@percent }
\newlabel{tab:scaling2}{{6}{8}{scaling values in order to reduce after-pulses with additional magnetic field\relax }{table.6}{}}
\@writefile{lot}{\contentsline {table}{\numberline {7}{\ignorespaces Larmor frequency obtained by \textbf  {Asymmetry.C}\relax }}{8}{table.7}\protected@file@percent }
\newlabel{tab:larmor}{{7}{8}{Larmor frequency obtained by \textbf {Asymmetry.C}\relax }{table.7}{}}
\abx@aux@cite{0}{10.1093/ptep/ptaa104}
\abx@aux@segm{0}{0}{10.1093/ptep/ptaa104}
\abx@aux@cite{0}{Mohr_2018}
\abx@aux@segm{0}{0}{Mohr_2018}
\@writefile{lof}{\contentsline {figure}{\numberline {13}{\ignorespaces Final result using \textbf  {AccumulatedAsymmetrie.C} and fitting in the range of $\chi \in [300,2400]$\relax }}{9}{figure.13}\protected@file@percent }
\newlabel{fig:final}{{13}{9}{Final result using \textbf {AccumulatedAsymmetrie.C} and fitting in the range of $\chi \in [300,2400]$\relax }{figure.13}{}}
\abx@aux@nociteall
\@writefile{toc}{\contentsline {section}{\numberline {4}Discussion}{10}{section.4}\protected@file@percent }
\abx@aux@read@bbl@mdfivesum{F14F665403F25AF068BB5AE9D70D5122}
\abx@aux@defaultrefcontext{0}{10.1093/ptep/ptaa104}{nty/global//global/global}
\abx@aux@defaultrefcontext{0}{Mohr_2018}{nty/global//global/global}
\abx@aux@defaultrefcontext{0}{Photomultiplier}{nty/global//global/global}
\gdef \@abspage@last{12}
